{
"skeleton": { "hash": "CQdFn2bUVhB6UzUXvzdFNrrYtw0", "spine": "3.0.08", "width": 1353.18, "height": 1797.94, "images": "./assets/" },
"bones": [
	{ "name": "root" },
	{ "name": "bone13", "parent": "root", "length": 852.2, "x": -47.24, "y": -8.18, "rotation": 112.56 },
	{ "name": "bone", "parent": "root", "length": 665.95, "x": 118.43, "y": 426.33, "rotation": 95.65 },
	{ "name": "bone11", "parent": "bone", "length": 493.32, "x": 684.82, "y": -221.77, "rotation": -151.53 },
	{ "name": "bone12", "parent": "bone11", "length": 417.77, "x": 476.78, "y": -9.85, "rotation": -79.43 },
	{ "name": "bone9", "parent": "bone", "length": 497.3, "x": 714.65, "y": 142.8, "rotation": 103.84 },
	{ "name": "bone10", "parent": "bone9", "length": 450.45, "x": 495.58, "y": 13.61, "rotation": 138.82 },
	{ "name": "bone2", "parent": "bone", "length": 381.37, "x": 744, "y": 26.81, "rotation": -5.66 },
	{ "name": "bone8", "parent": "bone2", "length": 175.09, "x": 103.15, "y": -18.79, "rotation": -88.99 },
	{ "name": "bone7", "parent": "bone2", "length": 122.55, "x": 275.06, "y": -87.63, "rotation": -84.16 },
	{ "name": "bone6", "parent": "bone2", "length": 135.72, "x": 281.33, "y": -46.99, "rotation": 97.92 },
	{ "name": "bone5", "parent": "bone2", "length": 180.61, "x": 231.39, "y": 156.21, "rotation": 113.59 },
	{ "name": "bone4", "parent": "bone2", "length": 178.62, "x": 234.4, "y": -150.14, "rotation": -111.47 },
	{ "name": "bone3", "parent": "bone2", "length": 247.14, "x": 425.16, "y": 27.97, "rotation": 55 }
],
"slots": [
	{ "name": "vucut", "bone": "bone", "attachment": "vucut" },
	{ "name": "kalca_sol", "bone": "bone", "attachment": "kalca_sol" },
	{ "name": "kalca_sag", "bone": "bone", "attachment": "kalca_sag" },
	{ "name": "sag_kol", "bone": "bone11", "attachment": "sag_kol" },
	{ "name": "sag_ayak", "bone": "bone", "attachment": "sag_ayak" },
	{ "name": "sol_kol", "bone": "bone9", "attachment": "sol_kol" },
	{ "name": "sol_el", "bone": "bone10", "attachment": "sol_el" },
	{ "name": "cuval", "bone": "bone13", "attachment": "cuval" },
	{ "name": "sag_kulak", "bone": "bone4", "attachment": "sag_kulak" },
	{ "name": "sol_kulak", "bone": "bone5", "attachment": "sol_kulak" },
	{ "name": "kelle", "bone": "bone2", "attachment": "kelle" },
	{ "name": "biyik", "bone": "bone8", "attachment": "biyik" },
	{ "name": "sag_kas", "bone": "bone7", "attachment": "sag_kas" },
	{ "name": "sol_kas", "bone": "bone6", "attachment": "sol_kas" },
	{ "name": "kukuleta", "bone": "bone3", "attachment": "kukuleta" },
	{ "name": "sag_el", "bone": "bone12", "attachment": "sag_el" },
	{ "name": "sol_ayak", "bone": "bone", "attachment": "sol_ayak" }
],
"skins": {
	"default": {
		"biyik": {
			"biyik": { "x": 40.54, "y": -6.56, "rotation": -1.02, "width": 225, "height": 128 }
		},
		"cuval": {
			"cuval": { "x": 348.92, "y": -295.87, "rotation": -112.57, "width": 965, "height": 901 }
		},
		"kalca_sag": {
			"kalca_sag": { "x": -91.62, "y": -332.4, "rotation": -95.65, "width": 557, "height": 289 }
		},
		"kalca_sol": {
			"kalca_sol": { "x": 44.29, "y": 196.84, "rotation": -95.65, "width": 743, "height": 508 }
		},
		"kelle": {
			"kelle": { "x": -2.8, "y": -135.13, "rotation": -90.02, "width": 695, "height": 1008 }
		},
		"kukuleta": {
			"kukuleta": { "x": 109.59, "y": 31.43, "rotation": -145.03, "width": 540, "height": 297 }
		},
		"sag_ayak": {
			"sag_ayak": { "x": -198.29, "y": -337.05, "rotation": -95.65, "width": 573, "height": 336 }
		},
		"sag_el": {
			"sag_el": { "x": 187.84, "y": -4.04, "rotation": 135.27, "width": 359, "height": 368 }
		},
		"sag_kas": {
			"sag_kas": { "x": 54.06, "y": 12.27, "rotation": -5.85, "width": 153, "height": 74 }
		},
		"sag_kol": {
			"sag_kol": { "x": 227.84, "y": -47.57, "rotation": 55.85, "width": 389, "height": 483 }
		},
		"sag_kulak": {
			"sag_kulak": { "x": 50.92, "y": -1.3, "rotation": 8.77, "width": 224, "height": 123 }
		},
		"sol_ayak": {
			"sol_ayak": { "x": -23.5, "y": 495.02, "rotation": -95.65, "width": 218, "height": 704 }
		},
		"sol_el": {
			"sol_el": { "x": 216.53, "y": 22.56, "rotation": 21.67, "width": 492, "height": 235 }
		},
		"sol_kas": {
			"sol_kas": { "x": 57.29, "y": -8.04, "rotation": 172.05, "width": 144, "height": 72 }
		},
		"sol_kol": {
			"sol_kol": { "x": 260.76, "y": 24.96, "rotation": 160.51, "width": 509, "height": 296 }
		},
		"sol_kulak": {
			"sol_kulak": { "x": 68.04, "y": -3.13, "rotation": 156.39, "width": 256, "height": 157 }
		},
		"vucut": {
			"vucut": { "x": 416.66, "y": 111.8, "rotation": -95.65, "width": 779, "height": 909 }
		}
	}
},
"animations": {
	"call": {
		"bones": {
			"bone2": {
				"rotate": [
					{ "time": 0, "angle": 7.52 },
					{ "time": 0.2666, "angle": 12.01 },
					{ "time": 0.5, "angle": 23.91 },
					{ "time": 0.7666, "angle": 7.45 },
					{ "time": 1, "angle": 7.52 }
				],
				"translate": [
					{ "time": 0, "x": 0, "y": 0, "curve": "stepped" },
					{ "time": 0.2666, "x": 0, "y": 0, "curve": "stepped" },
					{ "time": 0.5, "x": 0, "y": 0, "curve": "stepped" },
					{ "time": 0.7666, "x": 0, "y": 0, "curve": "stepped" },
					{ "time": 1, "x": 0, "y": 0 }
				],
				"scale": [
					{ "time": 0, "x": 1, "y": 1, "curve": "stepped" },
					{ "time": 0.2666, "x": 1, "y": 1, "curve": "stepped" },
					{ "time": 0.5, "x": 1, "y": 1, "curve": "stepped" },
					{ "time": 0.7666, "x": 1, "y": 1, "curve": "stepped" },
					{ "time": 1, "x": 1, "y": 1 }
				]
			},
			"bone9": {
				"rotate": [
					{ "time": 0, "angle": 12.56 },
					{ "time": 0.2666, "angle": 17.61, "curve": "stepped" },
					{ "time": 0.5, "angle": 17.61 },
					{ "time": 0.7666, "angle": 19.92 },
					{ "time": 1, "angle": 12.56 }
				],
				"translate": [
					{ "time": 0, "x": 56.58, "y": 32.08 },
					{ "time": 0.2666, "x": 24.85, "y": 28.95, "curve": "stepped" },
					{ "time": 0.5, "x": 24.85, "y": 28.95, "curve": "stepped" },
					{ "time": 0.7666, "x": 24.85, "y": 28.95 },
					{ "time": 1, "x": 56.58, "y": 32.08 }
				],
				"scale": [
					{ "time": 0, "x": 1, "y": 1, "curve": "stepped" },
					{ "time": 0.2666, "x": 1, "y": 1, "curve": "stepped" },
					{ "time": 0.5, "x": 1, "y": 1, "curve": "stepped" },
					{ "time": 0.7666, "x": 1, "y": 1, "curve": "stepped" },
					{ "time": 1, "x": 1, "y": 1 }
				]
			},
			"bone10": {
				"rotate": [
					{ "time": 0, "angle": 4.88 },
					{ "time": 0.2666, "angle": 9.72 },
					{ "time": 0.5, "angle": -8.46 },
					{ "time": 0.7666, "angle": -8.95 },
					{ "time": 1, "angle": 4.88 }
				],
				"translate": [
					{ "time": 0, "x": 0, "y": 0, "curve": "stepped" },
					{ "time": 0.2666, "x": 0, "y": 0, "curve": "stepped" },
					{ "time": 0.5, "x": 0, "y": 0, "curve": "stepped" },
					{ "time": 0.7666, "x": 0, "y": 0, "curve": "stepped" },
					{ "time": 1, "x": 0, "y": 0 }
				],
				"scale": [
					{ "time": 0, "x": 1, "y": 1, "curve": "stepped" },
					{ "time": 0.2666, "x": 1, "y": 1, "curve": "stepped" },
					{ "time": 0.5, "x": 1, "y": 1, "curve": "stepped" },
					{ "time": 0.7666, "x": 1, "y": 1, "curve": "stepped" },
					{ "time": 1, "x": 1, "y": 1 }
				]
			},
			"bone11": {
				"rotate": [
					{ "time": 0, "angle": 22.45 },
					{ "time": 0.2666, "angle": 96.69 },
					{ "time": 0.5, "angle": 132.61 },
					{ "time": 0.7666, "angle": 22.81 },
					{ "time": 1, "angle": 22.45 }
				],
				"translate": [
					{ "time": 0, "x": 0, "y": 0 },
					{ "time": 0.2666, "x": 34.8, "y": 34.24 },
					{ "time": 0.5, "x": 47.22, "y": 64.43, "curve": "stepped" },
					{ "time": 0.7666, "x": 47.22, "y": 64.43 },
					{ "time": 1, "x": 0, "y": 0 }
				],
				"scale": [
					{ "time": 0, "x": 0.939, "y": 0.909 },
					{ "time": 0.2666, "x": 0.926, "y": 0.921, "curve": "stepped" },
					{ "time": 0.5, "x": 0.926, "y": 0.921, "curve": "stepped" },
					{ "time": 0.7666, "x": 0.926, "y": 0.921 },
					{ "time": 1, "x": 0.939, "y": 0.909 }
				]
			},
			"bone12": {
				"rotate": [
					{ "time": 0, "angle": 152.27 },
					{ "time": 0.2666, "angle": 104.9 },
					{ "time": 0.5, "angle": 70.68, "curve": "stepped" },
					{ "time": 0.7666, "angle": 70.68 },
					{ "time": 1, "angle": 152.27 }
				],
				"translate": [
					{ "time": 0, "x": -43.87, "y": -58.25 },
					{ "time": 0.2666, "x": -58.24, "y": -20.02 },
					{ "time": 0.5, "x": -45.68, "y": 0.36, "curve": "stepped" },
					{ "time": 0.7666, "x": -45.68, "y": 0.36 },
					{ "time": 1, "x": -43.87, "y": -58.25 }
				],
				"scale": [
					{ "time": 0, "x": 1, "y": 1 },
					{ "time": 0.2666, "x": 1.128, "y": 1, "curve": "stepped" },
					{ "time": 0.5, "x": 1.128, "y": 1, "curve": "stepped" },
					{ "time": 0.7666, "x": 1.128, "y": 1 },
					{ "time": 1, "x": 1, "y": 1 }
				]
			},
			"bone13": {
				"rotate": [
					{ "time": 0, "angle": 0 },
					{ "time": 0.2666, "angle": -1.76 },
					{ "time": 0.5, "angle": 1.74, "curve": "stepped" },
					{ "time": 0.7666, "angle": 1.74 },
					{ "time": 1, "angle": 0 }
				],
				"translate": [
					{ "time": 0, "x": 0, "y": 0, "curve": "stepped" },
					{ "time": 0.2666, "x": 0, "y": 0, "curve": "stepped" },
					{ "time": 0.5, "x": 0, "y": 0, "curve": "stepped" },
					{ "time": 0.7666, "x": 0, "y": 0, "curve": "stepped" },
					{ "time": 1, "x": 0, "y": 0 }
				],
				"scale": [
					{ "time": 0, "x": 1, "y": 1, "curve": "stepped" },
					{ "time": 0.2666, "x": 1, "y": 1, "curve": "stepped" },
					{ "time": 0.5, "x": 1, "y": 1, "curve": "stepped" },
					{ "time": 0.7666, "x": 1, "y": 1, "curve": "stepped" },
					{ "time": 1, "x": 1, "y": 1 }
				]
			},
			"bone": {
				"rotate": [
					{ "time": 0, "angle": 0, "curve": "stepped" },
					{ "time": 0.2666, "angle": 0, "curve": "stepped" },
					{ "time": 0.5, "angle": 0, "curve": "stepped" },
					{ "time": 0.7666, "angle": 0, "curve": "stepped" },
					{ "time": 1, "angle": 0 }
				],
				"translate": [
					{ "time": 0, "x": 0, "y": 0, "curve": "stepped" },
					{ "time": 0.2666, "x": 0, "y": 0, "curve": "stepped" },
					{ "time": 0.5, "x": 0, "y": 0, "curve": "stepped" },
					{ "time": 0.7666, "x": 0, "y": 0, "curve": "stepped" },
					{ "time": 1, "x": 0, "y": 0 }
				],
				"scale": [
					{ "time": 0, "x": 1, "y": 1, "curve": "stepped" },
					{ "time": 0.2666, "x": 1, "y": 1, "curve": "stepped" },
					{ "time": 0.5, "x": 1, "y": 1, "curve": "stepped" },
					{ "time": 0.7666, "x": 1, "y": 1, "curve": "stepped" },
					{ "time": 1, "x": 1, "y": 1 }
				]
			},
			"bone3": {
				"rotate": [
					{ "time": 0, "angle": 0 },
					{ "time": 0.2666, "angle": 15.45, "curve": "stepped" },
					{ "time": 0.5, "angle": 15.45 },
					{ "time": 0.7666, "angle": -3.35 },
					{ "time": 1, "angle": 0 }
				],
				"translate": [
					{ "time": 0, "x": 0, "y": 0 },
					{ "time": 0.2666, "x": 4.1, "y": 34.28, "curve": "stepped" },
					{ "time": 0.5, "x": 4.1, "y": 34.28 },
					{ "time": 0.7666, "x": 32.26, "y": 8.53 },
					{ "time": 1, "x": 0, "y": 0 }
				],
				"scale": [
					{ "time": 0, "x": 1, "y": 1, "curve": "stepped" },
					{ "time": 0.2666, "x": 1, "y": 1, "curve": "stepped" },
					{ "time": 0.5, "x": 1, "y": 1, "curve": "stepped" },
					{ "time": 0.7666, "x": 1, "y": 1, "curve": "stepped" },
					{ "time": 1, "x": 1, "y": 1 }
				]
			},
			"bone4": {
				"rotate": [
					{ "time": 0, "angle": -8.68 },
					{ "time": 0.2666, "angle": -28.05 },
					{ "time": 0.5, "angle": -36.38, "curve": "stepped" },
					{ "time": 0.7666, "angle": -36.38 },
					{ "time": 1, "angle": -8.68 }
				],
				"translate": [
					{ "time": 0, "x": 0, "y": 0, "curve": "stepped" },
					{ "time": 0.2666, "x": 0, "y": 0 },
					{ "time": 0.5, "x": -7.63, "y": 13.64, "curve": "stepped" },
					{ "time": 0.7666, "x": -7.63, "y": 13.64 },
					{ "time": 1, "x": 0, "y": 0 }
				],
				"scale": [
					{ "time": 0, "x": 1, "y": 1, "curve": "stepped" },
					{ "time": 0.2666, "x": 1, "y": 1, "curve": "stepped" },
					{ "time": 0.5, "x": 1, "y": 1, "curve": "stepped" },
					{ "time": 0.7666, "x": 1, "y": 1, "curve": "stepped" },
					{ "time": 1, "x": 1, "y": 1 }
				]
			},
			"bone5": {
				"rotate": [
					{ "time": 0, "angle": 0 },
					{ "time": 0.2666, "angle": 20.82 },
					{ "time": 0.5, "angle": 33.8, "curve": "stepped" },
					{ "time": 0.7666, "angle": 33.8 },
					{ "time": 1, "angle": 0 }
				],
				"translate": [
					{ "time": 0, "x": 0, "y": 0, "curve": "stepped" },
					{ "time": 0.2666, "x": 0, "y": 0, "curve": "stepped" },
					{ "time": 0.5, "x": 0, "y": 0, "curve": "stepped" },
					{ "time": 0.7666, "x": 0, "y": 0, "curve": "stepped" },
					{ "time": 1, "x": 0, "y": 0 }
				],
				"scale": [
					{ "time": 0, "x": 1, "y": 1, "curve": "stepped" },
					{ "time": 0.2666, "x": 1, "y": 1, "curve": "stepped" },
					{ "time": 0.5, "x": 1, "y": 1, "curve": "stepped" },
					{ "time": 0.7666, "x": 1, "y": 1, "curve": "stepped" },
					{ "time": 1, "x": 1, "y": 1 }
				]
			},
			"bone6": {
				"rotate": [
					{ "time": 0, "angle": 0, "curve": "stepped" },
					{ "time": 0.2666, "angle": 0, "curve": "stepped" },
					{ "time": 0.5, "angle": 0, "curve": "stepped" },
					{ "time": 0.7666, "angle": 0, "curve": "stepped" },
					{ "time": 1, "angle": 0 }
				],
				"translate": [
					{ "time": 0, "x": 0, "y": 0 },
					{ "time": 0.2666, "x": 21.4, "y": -4.55 },
					{ "time": 0.5, "x": 68.36, "y": 8.82 },
					{ "time": 0.7666, "x": 28.06, "y": 14.08 },
					{ "time": 1, "x": 0, "y": 0 }
				],
				"scale": [
					{ "time": 0, "x": 1, "y": 1, "curve": "stepped" },
					{ "time": 0.2666, "x": 1, "y": 1, "curve": "stepped" },
					{ "time": 0.5, "x": 1, "y": 1, "curve": "stepped" },
					{ "time": 0.7666, "x": 1, "y": 1, "curve": "stepped" },
					{ "time": 1, "x": 1, "y": 1 }
				]
			},
			"bone7": {
				"rotate": [
					{ "time": 0, "angle": 0, "curve": "stepped" },
					{ "time": 0.2666, "angle": 0, "curve": "stepped" },
					{ "time": 0.5, "angle": 0 },
					{ "time": 0.7666, "angle": -14.56 },
					{ "time": 1, "angle": 0 }
				],
				"translate": [
					{ "time": 0, "x": 0, "y": 0 },
					{ "time": 0.2666, "x": 55.03, "y": -11.71 },
					{ "time": 0.5, "x": 35.35, "y": -9.83 },
					{ "time": 0.7666, "x": 19.85, "y": -7.8 },
					{ "time": 1, "x": 0, "y": 0 }
				],
				"scale": [
					{ "time": 0, "x": 1, "y": 1, "curve": "stepped" },
					{ "time": 0.2666, "x": 1, "y": 1, "curve": "stepped" },
					{ "time": 0.5, "x": 1, "y": 1, "curve": "stepped" },
					{ "time": 0.7666, "x": 1, "y": 1, "curve": "stepped" },
					{ "time": 1, "x": 1, "y": 1 }
				]
			},
			"bone8": {
				"rotate": [
					{ "time": 0, "angle": 0, "curve": "stepped" },
					{ "time": 0.2666, "angle": 0, "curve": "stepped" },
					{ "time": 0.5, "angle": 0 },
					{ "time": 0.7666, "angle": -12.75 },
					{ "time": 1, "angle": 0 }
				],
				"translate": [
					{ "time": 0, "x": 0, "y": 0 },
					{ "time": 0.2666, "x": -42.8, "y": 9.11 },
					{ "time": 0.5, "x": 12.11, "y": 1.86 },
					{ "time": 0.7666, "x": -0.28, "y": 3.48 },
					{ "time": 1, "x": 0, "y": 0 }
				],
				"scale": [
					{ "time": 0, "x": 1, "y": 1, "curve": "stepped" },
					{ "time": 0.2666, "x": 1, "y": 1, "curve": "stepped" },
					{ "time": 0.5, "x": 1, "y": 1, "curve": "stepped" },
					{ "time": 0.7666, "x": 1, "y": 1, "curve": "stepped" },
					{ "time": 1, "x": 1, "y": 1 }
				]
			}
		}
	},
	"idle": {
		"bones": {
			"bone2": {
				"rotate": [
					{ "time": 0, "angle": 7.73 },
					{ "time": 0.3, "angle": 5.82 },
					{ "time": 0.6, "angle": 18.74 },
					{ "time": 0.7666, "angle": 5.24 },
					{ "time": 0.9333, "angle": 7.73 }
				],
				"translate": [
					{ "time": 0, "x": 3.11, "y": -0.3, "curve": "stepped" },
					{ "time": 0.3, "x": 3.11, "y": -0.3, "curve": "stepped" },
					{ "time": 0.6, "x": 3.11, "y": -0.3, "curve": "stepped" },
					{ "time": 0.7666, "x": 3.11, "y": -0.3, "curve": "stepped" },
					{ "time": 0.9333, "x": 3.11, "y": -0.3 }
				],
				"scale": [
					{ "time": 0, "x": 1, "y": 1, "curve": "stepped" },
					{ "time": 0.3, "x": 1, "y": 1, "curve": "stepped" },
					{ "time": 0.6, "x": 1, "y": 1, "curve": "stepped" },
					{ "time": 0.7666, "x": 1, "y": 1, "curve": "stepped" },
					{ "time": 0.9333, "x": 1, "y": 1 }
				]
			},
			"bone4": {
				"rotate": [
					{ "time": 0, "angle": -7.01 },
					{ "time": 0.3, "angle": -15.46 },
					{ "time": 0.6, "angle": 27.16 },
					{ "time": 0.7666, "angle": 6.74 },
					{ "time": 0.9333, "angle": -7.01 }
				],
				"translate": [
					{ "time": 0, "x": -10.7, "y": 14.07, "curve": "stepped" },
					{ "time": 0.3, "x": -10.7, "y": 14.07, "curve": "stepped" },
					{ "time": 0.6, "x": -10.7, "y": 14.07, "curve": "stepped" },
					{ "time": 0.7666, "x": -10.7, "y": 14.07, "curve": "stepped" },
					{ "time": 0.9333, "x": -10.7, "y": 14.07 }
				],
				"scale": [
					{ "time": 0, "x": 1, "y": 1, "curve": "stepped" },
					{ "time": 0.3, "x": 1, "y": 1, "curve": "stepped" },
					{ "time": 0.6, "x": 1, "y": 1, "curve": "stepped" },
					{ "time": 0.7666, "x": 1, "y": 1, "curve": "stepped" },
					{ "time": 0.9333, "x": 1, "y": 1 }
				]
			},
			"bone8": {
				"rotate": [
					{ "time": 0, "angle": -5.82 },
					{ "time": 0.3, "angle": -7.72 },
					{ "time": 0.6, "angle": -13.7 },
					{ "time": 0.7666, "angle": -8.31 },
					{ "time": 0.9333, "angle": -5.82 }
				],
				"translate": [
					{ "time": 0, "x": -21.68, "y": 2.94, "curve": "stepped" },
					{ "time": 0.3, "x": -21.68, "y": 2.94 },
					{ "time": 0.6, "x": -40.9, "y": -17.36 },
					{ "time": 0.7666, "x": -21.68, "y": 2.94, "curve": "stepped" },
					{ "time": 0.9333, "x": -21.68, "y": 2.94 }
				],
				"scale": [
					{ "time": 0, "x": 1, "y": 1, "curve": "stepped" },
					{ "time": 0.3, "x": 1, "y": 1, "curve": "stepped" },
					{ "time": 0.6, "x": 1, "y": 1, "curve": "stepped" },
					{ "time": 0.7666, "x": 1, "y": 1, "curve": "stepped" },
					{ "time": 0.9333, "x": 1, "y": 1 }
				]
			},
			"bone9": {
				"rotate": [
					{ "time": 0, "angle": 29.72 },
					{ "time": 0.3, "angle": 27.82, "curve": "stepped" },
					{ "time": 0.6, "angle": 27.82 },
					{ "time": 0.7666, "angle": 27.23 },
					{ "time": 0.9333, "angle": 29.72 }
				],
				"translate": [
					{ "time": 0, "x": 40.99, "y": 65.04, "curve": "stepped" },
					{ "time": 0.3, "x": 40.99, "y": 65.04, "curve": "stepped" },
					{ "time": 0.6, "x": 40.99, "y": 65.04, "curve": "stepped" },
					{ "time": 0.7666, "x": 40.99, "y": 65.04, "curve": "stepped" },
					{ "time": 0.9333, "x": 40.99, "y": 65.04 }
				],
				"scale": [
					{ "time": 0, "x": 1, "y": 1, "curve": "stepped" },
					{ "time": 0.3, "x": 1, "y": 1, "curve": "stepped" },
					{ "time": 0.6, "x": 1, "y": 1, "curve": "stepped" },
					{ "time": 0.7666, "x": 1, "y": 1, "curve": "stepped" },
					{ "time": 0.9333, "x": 1, "y": 1 }
				]
			},
			"bone10": {
				"rotate": [
					{ "time": 0, "angle": 8.62 },
					{ "time": 0.3, "angle": 6.72 },
					{ "time": 0.6, "angle": -3.3 },
					{ "time": 0.7666, "angle": -7.74 },
					{ "time": 0.9333, "angle": 8.62 }
				],
				"translate": [
					{ "time": 0, "x": 0, "y": 0, "curve": "stepped" },
					{ "time": 0.3, "x": 0, "y": 0, "curve": "stepped" },
					{ "time": 0.6, "x": 0, "y": 0, "curve": "stepped" },
					{ "time": 0.7666, "x": 0, "y": 0, "curve": "stepped" },
					{ "time": 0.9333, "x": 0, "y": 0 }
				],
				"scale": [
					{ "time": 0, "x": 1, "y": 1, "curve": "stepped" },
					{ "time": 0.3, "x": 1, "y": 1, "curve": "stepped" },
					{ "time": 0.6, "x": 1, "y": 1, "curve": "stepped" },
					{ "time": 0.7666, "x": 1, "y": 1, "curve": "stepped" },
					{ "time": 0.9333, "x": 1, "y": 1 }
				]
			},
			"bone11": {
				"rotate": [
					{ "time": 0, "angle": -13.03 },
					{ "time": 0.3, "angle": -11.15 },
					{ "time": 0.6, "angle": -19.03 },
					{ "time": 0.7666, "angle": -19.73 },
					{ "time": 0.9333, "angle": -13.03 }
				],
				"translate": [
					{ "time": 0, "x": 0, "y": 0 },
					{ "time": 0.3, "x": -27.45, "y": 11.2, "curve": "stepped" },
					{ "time": 0.6, "x": -27.45, "y": 11.2 },
					{ "time": 0.7666, "x": -18.9, "y": -2.08 },
					{ "time": 0.9333, "x": 0, "y": 0 }
				],
				"scale": [
					{ "time": 0, "x": 1, "y": 1, "curve": "stepped" },
					{ "time": 0.3, "x": 1, "y": 1, "curve": "stepped" },
					{ "time": 0.6, "x": 1, "y": 1, "curve": "stepped" },
					{ "time": 0.7666, "x": 1, "y": 1, "curve": "stepped" },
					{ "time": 0.9333, "x": 1, "y": 1 }
				]
			},
			"bone12": {
				"rotate": [
					{ "time": 0, "angle": 47.56 },
					{ "time": 0.3, "angle": 52.58 },
					{ "time": 0.6, "angle": 65.69 },
					{ "time": 0.7666, "angle": 62.36 },
					{ "time": 0.9333, "angle": 47.56 }
				],
				"translate": [
					{ "time": 0, "x": 0, "y": 0, "curve": "stepped" },
					{ "time": 0.3, "x": 0, "y": 0, "curve": "stepped" },
					{ "time": 0.6, "x": 0, "y": 0, "curve": "stepped" },
					{ "time": 0.7666, "x": 0, "y": 0, "curve": "stepped" },
					{ "time": 0.9333, "x": 0, "y": 0 }
				],
				"scale": [
					{ "time": 0, "x": 1, "y": 1, "curve": "stepped" },
					{ "time": 0.3, "x": 1, "y": 1, "curve": "stepped" },
					{ "time": 0.6, "x": 1, "y": 1, "curve": "stepped" },
					{ "time": 0.7666, "x": 1, "y": 1, "curve": "stepped" },
					{ "time": 0.9333, "x": 1, "y": 1 }
				]
			},
			"bone13": {
				"rotate": [
					{ "time": 0, "angle": 3.14 },
					{ "time": 0.3, "angle": 1.24, "curve": "stepped" },
					{ "time": 0.6, "angle": 1.24 },
					{ "time": 0.7666, "angle": 0.65 },
					{ "time": 0.9333, "angle": 3.14 }
				],
				"translate": [
					{ "time": 0, "x": 0, "y": 0, "curve": "stepped" },
					{ "time": 0.3, "x": 0, "y": 0, "curve": "stepped" },
					{ "time": 0.6, "x": 0, "y": 0, "curve": "stepped" },
					{ "time": 0.7666, "x": 0, "y": 0, "curve": "stepped" },
					{ "time": 0.9333, "x": 0, "y": 0 }
				],
				"scale": [
					{ "time": 0, "x": 1, "y": 1, "curve": "stepped" },
					{ "time": 0.3, "x": 1, "y": 1, "curve": "stepped" },
					{ "time": 0.6, "x": 1, "y": 1, "curve": "stepped" },
					{ "time": 0.7666, "x": 1, "y": 1, "curve": "stepped" },
					{ "time": 0.9333, "x": 1, "y": 1 }
				]
			},
			"bone": {
				"rotate": [
					{ "time": 0, "angle": 0 },
					{ "time": 0.3, "angle": -1.9, "curve": "stepped" },
					{ "time": 0.6, "angle": -1.9 },
					{ "time": 0.7666, "angle": -2.48 },
					{ "time": 0.9333, "angle": 0 }
				],
				"translate": [
					{ "time": 0, "x": 0, "y": 0, "curve": "stepped" },
					{ "time": 0.3, "x": 0, "y": 0, "curve": "stepped" },
					{ "time": 0.6, "x": 0, "y": 0, "curve": "stepped" },
					{ "time": 0.7666, "x": 0, "y": 0, "curve": "stepped" },
					{ "time": 0.9333, "x": 0, "y": 0 }
				],
				"scale": [
					{ "time": 0, "x": 1, "y": 1, "curve": "stepped" },
					{ "time": 0.3, "x": 1, "y": 1, "curve": "stepped" },
					{ "time": 0.6, "x": 1, "y": 1, "curve": "stepped" },
					{ "time": 0.7666, "x": 1, "y": 1, "curve": "stepped" },
					{ "time": 0.9333, "x": 1, "y": 1 }
				]
			},
			"bone3": {
				"rotate": [
					{ "time": 0, "angle": 0 },
					{ "time": 0.3, "angle": -11.64 },
					{ "time": 0.6, "angle": -31.72 },
					{ "time": 0.7666, "angle": 14.91 },
					{ "time": 0.9333, "angle": 0 }
				],
				"translate": [
					{ "time": 0, "x": 0, "y": 0 },
					{ "time": 0.3, "x": 5.37, "y": -12.9 },
					{ "time": 0.6, "x": 5.01, "y": -35.65 },
					{ "time": 0.7666, "x": -1, "y": 43.86 },
					{ "time": 0.9333, "x": 0, "y": 0 }
				],
				"scale": [
					{ "time": 0, "x": 1, "y": 1, "curve": "stepped" },
					{ "time": 0.3, "x": 1, "y": 1, "curve": "stepped" },
					{ "time": 0.6, "x": 1, "y": 1, "curve": "stepped" },
					{ "time": 0.7666, "x": 1, "y": 1, "curve": "stepped" },
					{ "time": 0.9333, "x": 1, "y": 1 }
				]
			},
			"bone5": {
				"rotate": [
					{ "time": 0, "angle": 0 },
					{ "time": 0.3, "angle": 11.79 },
					{ "time": 0.6, "angle": -15.77 },
					{ "time": 0.7666, "angle": -10.13 },
					{ "time": 0.9333, "angle": 0 }
				],
				"translate": [
					{ "time": 0, "x": 0, "y": 0, "curve": "stepped" },
					{ "time": 0.3, "x": 0, "y": 0, "curve": "stepped" },
					{ "time": 0.6, "x": 0, "y": 0, "curve": "stepped" },
					{ "time": 0.7666, "x": 0, "y": 0, "curve": "stepped" },
					{ "time": 0.9333, "x": 0, "y": 0 }
				],
				"scale": [
					{ "time": 0, "x": 1, "y": 1, "curve": "stepped" },
					{ "time": 0.3, "x": 1, "y": 1, "curve": "stepped" },
					{ "time": 0.6, "x": 1, "y": 1, "curve": "stepped" },
					{ "time": 0.7666, "x": 1, "y": 1, "curve": "stepped" },
					{ "time": 0.9333, "x": 1, "y": 1 }
				]
			},
			"bone6": {
				"rotate": [
					{ "time": 0, "angle": 0 },
					{ "time": 0.3, "angle": -1.9, "curve": "stepped" },
					{ "time": 0.6, "angle": -1.9 },
					{ "time": 0.7666, "angle": -2.48 },
					{ "time": 0.9333, "angle": 0 }
				],
				"translate": [
					{ "time": 0, "x": 0, "y": 0 },
					{ "time": 0.3, "x": -12.47, "y": 0.85 },
					{ "time": 0.6, "x": -40.03, "y": -3.85 },
					{ "time": 0.7666, "x": 28.1, "y": -1.35 },
					{ "time": 0.9333, "x": 0, "y": 0 }
				],
				"scale": [
					{ "time": 0, "x": 1, "y": 1, "curve": "stepped" },
					{ "time": 0.3, "x": 1, "y": 1, "curve": "stepped" },
					{ "time": 0.6, "x": 1, "y": 1, "curve": "stepped" },
					{ "time": 0.7666, "x": 1, "y": 1, "curve": "stepped" },
					{ "time": 0.9333, "x": 1, "y": 1 }
				]
			},
			"bone7": {
				"rotate": [
					{ "time": 0, "angle": 0 },
					{ "time": 0.3, "angle": -1.9 },
					{ "time": 0.6, "angle": -8.36 },
					{ "time": 0.7666, "angle": -2.48 },
					{ "time": 0.9333, "angle": 0 }
				],
				"translate": [
					{ "time": 0, "x": 0, "y": 0, "curve": "stepped" },
					{ "time": 0.3, "x": 0, "y": 0 },
					{ "time": 0.6, "x": -38.34, "y": -7.98 },
					{ "time": 0.7666, "x": 28.1, "y": -1.35 },
					{ "time": 0.9333, "x": 0, "y": 0 }
				],
				"scale": [
					{ "time": 0, "x": 1, "y": 1, "curve": "stepped" },
					{ "time": 0.3, "x": 1, "y": 1, "curve": "stepped" },
					{ "time": 0.6, "x": 1, "y": 1, "curve": "stepped" },
					{ "time": 0.7666, "x": 1, "y": 1, "curve": "stepped" },
					{ "time": 0.9333, "x": 1, "y": 1 }
				]
			}
		}
	},
	"shop": {
		"bones": {
			"bone": {
				"rotate": [
					{ "time": 0, "angle": 0, "curve": "stepped" },
					{ "time": 0.1666, "angle": 0, "curve": "stepped" },
					{ "time": 0.3333, "angle": 0, "curve": "stepped" },
					{ "time": 0.5, "angle": 0, "curve": "stepped" },
					{ "time": 0.6666, "angle": 0, "curve": "stepped" },
					{ "time": 0.8333, "angle": 0, "curve": "stepped" },
					{ "time": 1, "angle": 0 }
				],
				"translate": [
					{ "time": 0, "x": 0, "y": 0, "curve": "stepped" },
					{ "time": 0.1666, "x": 0, "y": 0, "curve": "stepped" },
					{ "time": 0.3333, "x": 0, "y": 0, "curve": "stepped" },
					{ "time": 0.5, "x": 0, "y": 0, "curve": "stepped" },
					{ "time": 0.6666, "x": 0, "y": 0, "curve": "stepped" },
					{ "time": 0.8333, "x": 0, "y": 0, "curve": "stepped" },
					{ "time": 1, "x": 0, "y": 0 }
				],
				"scale": [
					{ "time": 0, "x": 1, "y": 1, "curve": "stepped" },
					{ "time": 0.1666, "x": 1, "y": 1, "curve": "stepped" },
					{ "time": 0.3333, "x": 1, "y": 1, "curve": "stepped" },
					{ "time": 0.5, "x": 1, "y": 1, "curve": "stepped" },
					{ "time": 0.6666, "x": 1, "y": 1, "curve": "stepped" },
					{ "time": 0.8333, "x": 1, "y": 1, "curve": "stepped" },
					{ "time": 1, "x": 1, "y": 1 }
				]
			},
			"bone2": {
				"rotate": [
					{ "time": 0, "angle": 0 },
					{ "time": 0.1666, "angle": -8.36 },
					{ "time": 0.3333, "angle": -19.67 },
					{ "time": 0.5, "angle": -8.36 },
					{ "time": 0.6666, "angle": -19.67 },
					{ "time": 0.8333, "angle": -8.36 },
					{ "time": 1, "angle": 0 }
				],
				"translate": [
					{ "time": 0, "x": 0, "y": 0, "curve": "stepped" },
					{ "time": 0.1666, "x": 0, "y": 0, "curve": "stepped" },
					{ "time": 0.3333, "x": 0, "y": 0, "curve": "stepped" },
					{ "time": 0.5, "x": 0, "y": 0, "curve": "stepped" },
					{ "time": 0.6666, "x": 0, "y": 0, "curve": "stepped" },
					{ "time": 0.8333, "x": 0, "y": 0, "curve": "stepped" },
					{ "time": 1, "x": 0, "y": 0 }
				],
				"scale": [
					{ "time": 0, "x": 1, "y": 1, "curve": "stepped" },
					{ "time": 0.1666, "x": 1, "y": 1, "curve": "stepped" },
					{ "time": 0.3333, "x": 1, "y": 1, "curve": "stepped" },
					{ "time": 0.5, "x": 1, "y": 1, "curve": "stepped" },
					{ "time": 0.6666, "x": 1, "y": 1, "curve": "stepped" },
					{ "time": 0.8333, "x": 1, "y": 1, "curve": "stepped" },
					{ "time": 1, "x": 1, "y": 1 }
				]
			},
			"bone3": {
				"rotate": [
					{ "time": 0, "angle": 0, "curve": "stepped" },
					{ "time": 0.1666, "angle": 0 },
					{ "time": 0.3333, "angle": -26.72 },
					{ "time": 0.5, "angle": -20.34 },
					{ "time": 0.6666, "angle": -14.52 },
					{ "time": 0.8333, "angle": 0, "curve": "stepped" },
					{ "time": 1, "angle": 0 }
				],
				"translate": [
					{ "time": 0, "x": 0, "y": 0, "curve": "stepped" },
					{ "time": 0.1666, "x": 0, "y": 0 },
					{ "time": 0.3333, "x": -5.26, "y": -31.75 },
					{ "time": 0.5, "x": 11.54, "y": -14.1 },
					{ "time": 0.6666, "x": 1.26, "y": -12.82 },
					{ "time": 0.8333, "x": 0, "y": 0, "curve": "stepped" },
					{ "time": 1, "x": 0, "y": 0 }
				],
				"scale": [
					{ "time": 0, "x": 1, "y": 1, "curve": "stepped" },
					{ "time": 0.1666, "x": 1, "y": 1, "curve": "stepped" },
					{ "time": 0.3333, "x": 1, "y": 1, "curve": "stepped" },
					{ "time": 0.5, "x": 1, "y": 1, "curve": "stepped" },
					{ "time": 0.6666, "x": 1, "y": 1, "curve": "stepped" },
					{ "time": 0.8333, "x": 1, "y": 1, "curve": "stepped" },
					{ "time": 1, "x": 1, "y": 1 }
				]
			},
			"bone4": {
				"rotate": [
					{ "time": 0, "angle": 0 },
					{ "time": 0.1666, "angle": -19.75 },
					{ "time": 0.3333, "angle": -31.62 },
					{ "time": 0.5, "angle": 10.78 },
					{ "time": 0.6666, "angle": 5.01 },
					{ "time": 0.8333, "angle": -19.75 },
					{ "time": 1, "angle": 0 }
				],
				"translate": [
					{ "time": 0, "x": 0, "y": 0 },
					{ "time": 0.1666, "x": 4.36, "y": 13.28, "curve": "stepped" },
					{ "time": 0.3333, "x": 4.36, "y": 13.28, "curve": "stepped" },
					{ "time": 0.5, "x": 4.36, "y": 13.28, "curve": "stepped" },
					{ "time": 0.6666, "x": 4.36, "y": 13.28, "curve": "stepped" },
					{ "time": 0.8333, "x": 4.36, "y": 13.28 },
					{ "time": 1, "x": 0, "y": 0 }
				],
				"scale": [
					{ "time": 0, "x": 1, "y": 1, "curve": "stepped" },
					{ "time": 0.1666, "x": 1, "y": 1, "curve": "stepped" },
					{ "time": 0.3333, "x": 1, "y": 1, "curve": "stepped" },
					{ "time": 0.5, "x": 1, "y": 1, "curve": "stepped" },
					{ "time": 0.6666, "x": 1, "y": 1, "curve": "stepped" },
					{ "time": 0.8333, "x": 1, "y": 1, "curve": "stepped" },
					{ "time": 1, "x": 1, "y": 1 }
				]
			},
			"bone5": {
				"rotate": [
					{ "time": 0, "angle": 0 },
					{ "time": 0.1666, "angle": 22.66 },
					{ "time": 0.3333, "angle": 35.42 },
					{ "time": 0.5, "angle": 4.3 },
					{ "time": 0.6666, "angle": 4.99 },
					{ "time": 0.8333, "angle": 22.66 },
					{ "time": 1, "angle": 0 }
				],
				"translate": [
					{ "time": 0, "x": 0, "y": 0, "curve": "stepped" },
					{ "time": 0.1666, "x": 0, "y": 0, "curve": "stepped" },
					{ "time": 0.3333, "x": 0, "y": 0, "curve": "stepped" },
					{ "time": 0.5, "x": 0, "y": 0, "curve": "stepped" },
					{ "time": 0.6666, "x": 0, "y": 0, "curve": "stepped" },
					{ "time": 0.8333, "x": 0, "y": 0, "curve": "stepped" },
					{ "time": 1, "x": 0, "y": 0 }
				],
				"scale": [
					{ "time": 0, "x": 1, "y": 1, "curve": "stepped" },
					{ "time": 0.1666, "x": 1, "y": 1, "curve": "stepped" },
					{ "time": 0.3333, "x": 1, "y": 1, "curve": "stepped" },
					{ "time": 0.5, "x": 1, "y": 1, "curve": "stepped" },
					{ "time": 0.6666, "x": 1, "y": 1, "curve": "stepped" },
					{ "time": 0.8333, "x": 1, "y": 1, "curve": "stepped" },
					{ "time": 1, "x": 1, "y": 1 }
				]
			},
			"bone6": {
				"rotate": [
					{ "time": 0, "angle": 0, "curve": "stepped" },
					{ "time": 0.1666, "angle": 0, "curve": "stepped" },
					{ "time": 0.3333, "angle": 0, "curve": "stepped" },
					{ "time": 0.5, "angle": 0, "curve": "stepped" },
					{ "time": 0.6666, "angle": 0, "curve": "stepped" },
					{ "time": 0.8333, "angle": 0, "curve": "stepped" },
					{ "time": 1, "angle": 0 }
				],
				"translate": [
					{ "time": 0, "x": 0, "y": 0 },
					{ "time": 0.1666, "x": 36.2, "y": 11.63 },
					{ "time": 0.3333, "x": 17.65, "y": 8.91 },
					{ "time": 0.5, "x": 2.18, "y": 6.64 },
					{ "time": 0.6666, "x": 5.87, "y": 4.7 },
					{ "time": 0.8333, "x": 36.2, "y": 11.63 },
					{ "time": 1, "x": 0, "y": 0 }
				],
				"scale": [
					{ "time": 0, "x": 1, "y": 1, "curve": "stepped" },
					{ "time": 0.1666, "x": 1, "y": 1, "curve": "stepped" },
					{ "time": 0.3333, "x": 1, "y": 1, "curve": "stepped" },
					{ "time": 0.5, "x": 1, "y": 1, "curve": "stepped" },
					{ "time": 0.6666, "x": 1, "y": 1, "curve": "stepped" },
					{ "time": 0.8333, "x": 1, "y": 1, "curve": "stepped" },
					{ "time": 1, "x": 1, "y": 1 }
				]
			},
			"bone7": {
				"rotate": [
					{ "time": 0, "angle": 0, "curve": "stepped" },
					{ "time": 0.1666, "angle": 0, "curve": "stepped" },
					{ "time": 0.3333, "angle": 0, "curve": "stepped" },
					{ "time": 0.5, "angle": 0, "curve": "stepped" },
					{ "time": 0.6666, "angle": 0, "curve": "stepped" },
					{ "time": 0.8333, "angle": 0, "curve": "stepped" },
					{ "time": 1, "angle": 0 }
				],
				"translate": [
					{ "time": 0, "x": 0, "y": 0, "curve": "stepped" },
					{ "time": 0.1666, "x": 0, "y": 0 },
					{ "time": 0.3333, "x": 40.66, "y": 2.8 },
					{ "time": 0.5, "x": 0, "y": 0 },
					{ "time": 0.6666, "x": 14.16, "y": -6.65 },
					{ "time": 0.8333, "x": 0, "y": 0, "curve": "stepped" },
					{ "time": 1, "x": 0, "y": 0 }
				],
				"scale": [
					{ "time": 0, "x": 1, "y": 1, "curve": "stepped" },
					{ "time": 0.1666, "x": 1, "y": 1, "curve": "stepped" },
					{ "time": 0.3333, "x": 1, "y": 1, "curve": "stepped" },
					{ "time": 0.5, "x": 1, "y": 1, "curve": "stepped" },
					{ "time": 0.6666, "x": 1, "y": 1, "curve": "stepped" },
					{ "time": 0.8333, "x": 1, "y": 1, "curve": "stepped" },
					{ "time": 1, "x": 1, "y": 1 }
				]
			},
			"bone8": {
				"rotate": [
					{ "time": 0, "angle": 0 },
					{ "time": 0.1666, "angle": 11.52 },
					{ "time": 0.3333, "angle": -6.02 },
					{ "time": 0.5, "angle": 0.1 },
					{ "time": 0.6666, "angle": -6.02 },
					{ "time": 0.8333, "angle": 11.52 },
					{ "time": 1, "angle": 0 }
				],
				"translate": [
					{ "time": 0, "x": 0, "y": 0 },
					{ "time": 0.1666, "x": -30.93, "y": -4.54, "curve": "stepped" },
					{ "time": 0.3333, "x": -30.93, "y": -4.54 },
					{ "time": 0.5, "x": -40.21, "y": -5.9 },
					{ "time": 0.6666, "x": -30.93, "y": -4.54, "curve": "stepped" },
					{ "time": 0.8333, "x": -30.93, "y": -4.54 },
					{ "time": 1, "x": 0, "y": 0 }
				],
				"scale": [
					{ "time": 0, "x": 1, "y": 1, "curve": "stepped" },
					{ "time": 0.1666, "x": 1, "y": 1, "curve": "stepped" },
					{ "time": 0.3333, "x": 1, "y": 1, "curve": "stepped" },
					{ "time": 0.5, "x": 1, "y": 1, "curve": "stepped" },
					{ "time": 0.6666, "x": 1, "y": 1, "curve": "stepped" },
					{ "time": 0.8333, "x": 1, "y": 1, "curve": "stepped" },
					{ "time": 1, "x": 1, "y": 1 }
				]
			},
			"bone9": {
				"rotate": [
					{ "time": 0, "angle": 15.76 },
					{ "time": 0.1666, "angle": 48.12 },
					{ "time": 0.3333, "angle": 67.37 },
					{ "time": 0.5, "angle": 48.12 },
					{ "time": 0.6666, "angle": -283.8 },
					{ "time": 0.8333, "angle": 48.12 },
					{ "time": 1, "angle": 15.76 }
				],
				"translate": [
					{ "time": 0, "x": 49.09, "y": 51.67 },
					{ "time": 0.1666, "x": 24.21, "y": 54.14 },
					{ "time": 0.3333, "x": 66.78, "y": 103.32 },
					{ "time": 0.5, "x": 24.21, "y": 54.14 },
					{ "time": 0.6666, "x": 54.92, "y": 142.19 },
					{ "time": 0.8333, "x": 24.21, "y": 54.14 },
					{ "time": 1, "x": 49.09, "y": 51.67 }
				],
				"scale": [
					{ "time": 0, "x": 1, "y": 1 },
					{ "time": 0.1666, "x": 0.882, "y": 1 },
					{ "time": 0.3333, "x": 1.044, "y": 1 },
					{ "time": 0.5, "x": 0.882, "y": 1 },
					{ "time": 0.6666, "x": 1.044, "y": 1 },
					{ "time": 0.8333, "x": 0.882, "y": 1 },
					{ "time": 1, "x": 1, "y": 1 }
				]
			},
			"bone10": {
				"rotate": [
					{ "time": 0, "angle": 0 },
					{ "time": 0.1666, "angle": -66.3 },
					{ "time": 0.3333, "angle": -138.87 },
					{ "time": 0.5, "angle": -66.3 },
					{ "time": 0.6666, "angle": -94.53 },
					{ "time": 0.8333, "angle": -66.3 },
					{ "time": 1, "angle": 0 }
				],
				"translate": [
					{ "time": 0, "x": 0, "y": 0, "curve": "stepped" },
					{ "time": 0.1666, "x": 0, "y": 0, "curve": "stepped" },
					{ "time": 0.3333, "x": 0, "y": 0, "curve": "stepped" },
					{ "time": 0.5, "x": 0, "y": 0, "curve": "stepped" },
					{ "time": 0.6666, "x": 0, "y": 0, "curve": "stepped" },
					{ "time": 0.8333, "x": 0, "y": 0, "curve": "stepped" },
					{ "time": 1, "x": 0, "y": 0 }
				],
				"scale": [
					{ "time": 0, "x": 1, "y": 1, "curve": "stepped" },
					{ "time": 0.1666, "x": 1, "y": 1, "curve": "stepped" },
					{ "time": 0.3333, "x": 1, "y": 1, "curve": "stepped" },
					{ "time": 0.5, "x": 1, "y": 1, "curve": "stepped" },
					{ "time": 0.6666, "x": 1, "y": 1, "curve": "stepped" },
					{ "time": 0.8333, "x": 1, "y": 1, "curve": "stepped" },
					{ "time": 1, "x": 1, "y": 1 }
				]
			},
			"bone11": {
				"rotate": [
					{ "time": 0, "angle": 0 },
					{ "time": 0.1666, "angle": -7.5 },
					{ "time": 0.3333, "angle": -14.61 },
					{ "time": 0.5, "angle": -12.68 },
					{ "time": 0.6666, "angle": -19.1 },
					{ "time": 0.8333, "angle": -7.5 },
					{ "time": 1, "angle": 0 }
				],
				"translate": [
					{ "time": 0, "x": 0, "y": 0, "curve": "stepped" },
					{ "time": 0.1666, "x": 0, "y": 0, "curve": "stepped" },
					{ "time": 0.3333, "x": 0, "y": 0, "curve": "stepped" },
					{ "time": 0.5, "x": 0, "y": 0, "curve": "stepped" },
					{ "time": 0.6666, "x": 0, "y": 0, "curve": "stepped" },
					{ "time": 0.8333, "x": 0, "y": 0, "curve": "stepped" },
					{ "time": 1, "x": 0, "y": 0 }
				],
				"scale": [
					{ "time": 0, "x": 1, "y": 1, "curve": "stepped" },
					{ "time": 0.1666, "x": 1, "y": 1, "curve": "stepped" },
					{ "time": 0.3333, "x": 1, "y": 1, "curve": "stepped" },
					{ "time": 0.5, "x": 1, "y": 1, "curve": "stepped" },
					{ "time": 0.6666, "x": 1, "y": 1, "curve": "stepped" },
					{ "time": 0.8333, "x": 1, "y": 1, "curve": "stepped" },
					{ "time": 1, "x": 1, "y": 1 }
				]
			},
			"bone12": {
				"rotate": [
					{ "time": 0, "angle": 0 },
					{ "time": 0.1666, "angle": 25.58 },
					{ "time": 0.3333, "angle": 5.03 },
					{ "time": 0.5, "angle": 9.5 },
					{ "time": 0.6666, "angle": 41.47 },
					{ "time": 0.8333, "angle": 25.58 },
					{ "time": 1, "angle": 0 }
				],
				"translate": [
					{ "time": 0, "x": 0, "y": 0, "curve": "stepped" },
					{ "time": 0.1666, "x": 0, "y": 0, "curve": "stepped" },
					{ "time": 0.3333, "x": 0, "y": 0, "curve": "stepped" },
					{ "time": 0.5, "x": 0, "y": 0, "curve": "stepped" },
					{ "time": 0.6666, "x": 0, "y": 0, "curve": "stepped" },
					{ "time": 0.8333, "x": 0, "y": 0, "curve": "stepped" },
					{ "time": 1, "x": 0, "y": 0 }
				],
				"scale": [
					{ "time": 0, "x": 1, "y": 1, "curve": "stepped" },
					{ "time": 0.1666, "x": 1, "y": 1, "curve": "stepped" },
					{ "time": 0.3333, "x": 1, "y": 1, "curve": "stepped" },
					{ "time": 0.5, "x": 1, "y": 1, "curve": "stepped" },
					{ "time": 0.6666, "x": 1, "y": 1, "curve": "stepped" },
					{ "time": 0.8333, "x": 1, "y": 1, "curve": "stepped" },
					{ "time": 1, "x": 1, "y": 1 }
				]
			},
			"bone13": {
				"rotate": [
					{ "time": 0, "angle": 0, "curve": "stepped" },
					{ "time": 0.1666, "angle": 0 },
					{ "time": 0.3333, "angle": -1.66 },
					{ "time": 0.5, "angle": 0 },
					{ "time": 0.6666, "angle": -1.66 },
					{ "time": 0.8333, "angle": 0, "curve": "stepped" },
					{ "time": 1, "angle": 0 }
				],
				"translate": [
					{ "time": 0, "x": 0, "y": 0, "curve": "stepped" },
					{ "time": 0.1666, "x": 0, "y": 0 },
					{ "time": 0.3333, "x": -25, "y": 0 },
					{ "time": 0.5, "x": 0, "y": 0 },
					{ "time": 0.6666, "x": -25, "y": 0 },
					{ "time": 0.8333, "x": 0, "y": 0, "curve": "stepped" },
					{ "time": 1, "x": 0, "y": 0 }
				],
				"scale": [
					{ "time": 0, "x": 1, "y": 1, "curve": "stepped" },
					{ "time": 0.1666, "x": 1, "y": 1, "curve": "stepped" },
					{ "time": 0.3333, "x": 1, "y": 1, "curve": "stepped" },
					{ "time": 0.5, "x": 1, "y": 1, "curve": "stepped" },
					{ "time": 0.6666, "x": 1, "y": 1, "curve": "stepped" },
					{ "time": 0.8333, "x": 1, "y": 1, "curve": "stepped" },
					{ "time": 1, "x": 1, "y": 1 }
				]
			}
		}
	}
}
}